0 34.395 84.831 1.837 44.007 92.029 1.510 44.007 21.830
1 48.434 92.779 1.415 50.850 94.452 1.404 50.850 24.276
2 56.294 95.219 1.211 59.691 96.212 1.136 59.691 24.294
3 63.211 96.493 1.035 62.925 95.926 1.137 62.925 24.127
4 68.221 97.345 0.906 69.126 97.290 0.912 69.126 23.915
5 71.831 97.950 0.804 71.806 97.706 0.828 71.806 24.175
6 74.784 98.218 0.730 73.685 97.686 0.799 73.685 24.089
7 76.900 98.485 0.669 73.863 98.210 0.769 73.863 24.088
8 78.491 98.705 0.621 72.547 97.468 0.837 73.863 24.225
9 79.767 98.925 0.580 76.315 98.774 0.700 76.315 24.247