0 28.629 79.484 2.027 37.955 88.281 1.662 37.955 21.859
1 42.879 90.235 1.561 41.792 90.872 1.630 41.792 23.980
2 49.736 92.803 1.392 50.168 91.327 1.474 50.168 24.004
3 55.673 94.571 1.240 56.260 95.045 1.255 56.260 23.969
4 60.534 95.696 1.114 60.008 95.204 1.172 60.008 24.070
5 64.698 96.641 1.000 59.958 94.511 1.247 60.008 26.178
6 68.169 97.307 0.901 64.211 97.201 1.074 64.211 24.580
7 71.190 97.662 0.829 71.301 97.884 0.834 71.301 24.080
8 73.256 98.088 0.763 73.240 98.022 0.803 73.240 24.109
9 75.254 98.360 0.708 75.188 98.625 0.716 75.188 24.081